{
  "Usuario":
      {
      "RegEx": ".*",
      "Type": "STRING",
      "Pattern": ""
      },
  "Empresa":
      {
      "RegEx": ".*",
      "Type": "STRING",
      "Pattern": ""
      },
  "CEDIPlaneacion":
      {
      "RegEx": ".*",
      "Type": "STRING",
      "Pattern": ""
      },
  "Nombre":
      {
      "RegEx": ".*",
      "Type": "STRING",
      "Pattern": ""
      },
  "ApellidoPaterno":
      {
      "RegEx": ".*",
      "Type": "STRING",
      "Pattern": ""
      },
  "ApellidoMaterno":
      {
      "RegEx": ".*",
      "Type": "STRING",
      "Pattern": ""
      },
  "Contraseña":
      {
      "RegEx": ".*",
      "Type": "STRING",
      "Pattern": ""
      },
  "Generador":
      {
      "RegEx": "^(Sí|No)$",
      "Type": "STRING",
      "Pattern": ""
      },
  "Optimizador":
      {
      "RegEx": "^(Sí|No)$",
      "Type": "STRING",
      "Pattern": ""
      },
  "Asignacion":
      {
      "RegEx": "^(Sí|No)$",
      "Type": "STRING",
      "Pattern": ""
      },
  "Despegue":
      {
      "RegEx": "^(Sí|No)$",
      "Type": "STRING",
      "Pattern": ""
      },
  "Tracking":
      {
      "RegEx": "^(Sí|No)$",
      "Type": "STRING",
      "Pattern": ""
      },
  "A":
      {
      "RegEx": "^(Sí|No)$",
      "Type": "STRING",
      "Pattern": ""
      },
  "B":
      {
      "RegEx": "^(Sí|No)$",
      "Type": "STRING",
      "Pattern": ""
      },
  "C":
      {
      "RegEx": "^(Sí|No)$",
      "Type": "STRING",
      "Pattern": ""
      },
  "D":
      {
      "RegEx": "^(Sí|No)$",
      "Type": "STRING",
      "Pattern": ""
      },
  "E":
      {
      "RegEx": "^(Sí|No)$",
      "Type": "STRING",
      "Pattern": ""
      },
  "F":
      {
      "RegEx": "^(Sí|No)$",
      "Type": "STRING",
      "Pattern": ""
      },
  "G":
      {
      "RegEx": "^(Sí|No)$",
      "Type": "STRING",
      "Pattern": ""
      },
  "H":
      {
      "RegEx": "^(Sí|No)$",
      "Type": "STRING",
      "Pattern": ""
      },
  "I":
      {
      "RegEx": "^(Sí|No)$",
      "Type": "STRING",
      "Pattern": ""
      },
  "Estatus":
      {
      "RegEx": "^(Activo|Inactivo)$",
      "Type": "STRING",
      "Pattern": ""
      }
}

