{
  "Destino":
      {
      "RegEx": ".*",
      "Type": "STRING",
      "Pattern": ""
      },
  "CalleNumero":
      {
      "RegEx": ".*",
      "Type": "STRING",
      "Pattern": ""
      },
  "Colonia":
      {
      "RegEx": ".*",
      "Type": "STRING",
      "Pattern": ""
      },
  "Municipio":
      {
      "RegEx": ".*",
      "Type": "STRING",
      "Pattern": ""
      },
  "Estado":
      {
      "RegEx": ".*",
      "Type": "STRING",
      "Pattern": ""
      },
  "CodigoPostal":
      {
      "RegEx": "^[0-9]{5}$",
      "Type": "NUMBER",
      "Pattern": "00000"
      },
  "Region":
      {
      "RegEx": ".*",
      "Type": "STRING",
      "Pattern": ""
      },
  "Subregion":
      {
      "RegEx": ".*",
      "Type": "STRING",
      "Pattern": ""
      },
  "Latitud":
      {
      "RegEx": "^\\-?\\d*\\.?[0-9]{2,13}$",
      "Type": "NUMBER",
      "Pattern": "0.000000"
      },
  "Longitud":
      {
      "RegEx": "^\\-?\\d*\\.?[0-9]{2,13}$",
      "Type": "NUMBER",
      "Pattern": "0.000000"
      },
  "RestriccionVehiculo":
      {
      "RegEx": ".*",
      "Type": "STRING",
      "Pattern": ""
      },
  "RestriccionVolumen":
      {
      "RegEx": "^\\d+\\.?[0-9]{0,4}$",
      "Type": "NUMBER",
      "Pattern": "0.0000"
      },
  "Dedicado":
      {
      "RegEx": "^(Sí|No)$",
      "Type": "STRING",
      "Pattern": ""
      },
  "VentanaInicioDestino":
      {
      "RegEx": "^([0-9]|0[0-9]|1[0-9]|2[0-3]):[0-5][0-9]$",
      "Type": "DATE",
      "Pattern": "hh:mm"
      },
  "VentanaFinDestino":
      {
      "RegEx": "^([0-9]|0[0-9]|1[0-9]|2[0-3]):[0-5][0-9]$",
      "Type": "DATE",
      "Pattern": "hh:mm"
      },
  "DesfaseHorario":
      {
      "RegEx": "^(((\\+|\\-)[1-9])|0)$",
      "Type": "STRING",
      "Pattern": ""
      },
  "L":
      {
      "RegEx": "^(Sí|No)$",
      "Type": "STRING",
      "Pattern": ""
      },
  "M":
      {
      "RegEx": "^(Sí|No)$",
      "Type": "STRING",
      "Pattern": ""
      },
  "Mi":
      {
      "RegEx": "^(Sí|No)$",
      "Type": "STRING",
      "Pattern": ""
      },
  "J":
      {
      "RegEx": "^(Sí|No)$",
      "Type": "STRING",
      "Pattern": ""
      },
  "V":
      {
      "RegEx": "^(Sí|No)$",
      "Type": "STRING",
      "Pattern": ""
      },
  "S":
      {
      "RegEx": "^(Sí|No)$",
      "Type": "STRING",
      "Pattern": ""
      },
  "D":
      {
      "RegEx": "^(Sí|No)$",
      "Type": "STRING",
      "Pattern": ""
      },
  "TiemServicio":
      {
      "RegEx": "^[0-9]+$",
      "Type": "NUMBER",
      "Pattern": "00000"
      },
  "Contacto1":
      {
      "RegEx": ".*",
      "Type": "STRING",
      "Pattern": ""
      },
  "Telefono1":
      {
      "RegEx": "^[0-9]+$",
      "Type": "NUMBER",
      "Pattern": "0"
      },
  "Correo1":
      {
      "RegEx": "[^@]+@[^@]+\\.[^@]+",
      "Type": "STRING",
      "Pattern": ""
      },
  "Contacto2":
      {
      "RegEx": ".*",
      "Type": "STRING",
      "Pattern": ""
      },
  "Telefono2":
      {
      "RegEx": "(^$|^[0-9]+$)",
      "Type": "NUMBER",
      "Pattern": "0"
      },
  "Correo2":
      {
      "RegEx": "(^$|[^@]+@[^@]+\\.[^@]+)",
      "Type": "STRING",
      "Pattern": ""
      },
  "Hotel":
      {
      "RegEx": "^(Básico|Intermedio|Superior)$",
      "Type": "STRING",
      "Pattern": ""
      },
  "RecalcularDestino":
      {
      "RegEx": "^(Sí|No)$",
      "Type": "STRING",
      "Pattern": ""
      },
  "FactorSubidaS":
      {
      "RegEx": "^^\\d+\\.?[0-9]{0,2}$",
      "Type": "NUMBER",
      "Pattern": "0.00"
      },
  "FactorSubidaM":
      {
      "RegEx": "^^\\d+\\.?[0-9]{0,2}$",
      "Type": "NUMBER",
      "Pattern": "0.00"
      },
  "FactorSubidaL":
      {
      "RegEx": "^^\\d+\\.?[0-9]{0,2}$",
      "Type": "NUMBER",
      "Pattern": "0.00"
      },
  "FactorIntermedioS":
      {
      "RegEx": "^^\\d+\\.?[0-9]{0,2}$",
      "Type": "NUMBER",
      "Pattern": "0.00"
      },
  "FactorIntermedioM":
      {
      "RegEx": "^\\d+\\.?[0-9]{0,2}$",
      "Type": "NUMBER",
      "Pattern": "0.00"
      },
  "FactorIntermedioL":
      {
      "RegEx": "^\\d+\\.?[0-9]{0,2}$",
      "Type": "NUMBER",
      "Pattern": "0.00"
      },
  "FactorRetornoS":
      {
      "RegEx": "^\\d+\\.?[0-9]{0,2}$",
      "Type": "NUMBER",
      "Pattern": "0.00"
      },
  "FactorRetornoM":
      {
      "RegEx": "^\\d+\\.?[0-9]{0,2}$",
      "Type": "NUMBER",
      "Pattern": "0.00"
      },
  "FactorRetornoL":
      {
      "RegEx": "^\\d+\\.?[0-9]{0,2}$",
      "Type": "NUMBER",
      "Pattern": "0.00"
      }

}
